<?xml version="1.0" encoding="UTF-8" standalone="no"?>
<!-- Created with Inkscape (http://www.inkscape.org/) -->

<svg
   xmlns:dc="http://purl.org/dc/elements/1.1/"
   xmlns:cc="http://creativecommons.org/ns#"
   xmlns:rdf="http://www.w3.org/1999/02/22-rdf-syntax-ns#"
   xmlns:svg="http://www.w3.org/2000/svg"
   xmlns="http://www.w3.org/2000/svg"
   xmlns:sodipodi="http://sodipodi.sourceforge.net/DTD/sodipodi-0.dtd"
   xmlns:inkscape="http://www.inkscape.org/namespaces/inkscape"
   width="744.09448819"
   height="1052.3622047"
   id="svg2"
   version="1.1"
   inkscape:version="0.48.1 "
   sodipodi:docname="MathP Logo.svg">
  <sodipodi:namedview
     id="base"
     pagecolor="#ffffff"
     bordercolor="#666666"
     borderopacity="1.0"
     inkscape:pageopacity="0.0"
     inkscape:pageshadow="2"
     inkscape:zoom="2.9512045"
     inkscape:cx="180.5719"
     inkscape:cy="804.60233"
     inkscape:document-units="px"
     inkscape:current-layer="layer1"
     showgrid="true"
     inkscape:window-width="1119"
     inkscape:window-height="909"
     inkscape:window-x="1664"
     inkscape:window-y="42"
     inkscape:window-maximized="0">
    <inkscape:grid
       type="xygrid"
       id="grid2985" />
  </sodipodi:namedview>
  <title
     id="title3769">MathP Logo</title>
  <defs
     id="defs4">
    <marker
       inkscape:stockid="DiamondS"
       orient="auto"
       refY="0.0"
       refX="0.0"
       id="DiamondS"
       style="overflow:visible">
      <path
         id="path3884"
         d="M 0,-7.0710768 L -7.0710894,0 L 0,7.0710589 L 7.0710462,0 L 0,-7.0710768 z "
         style="fill-rule:evenodd;stroke:#000000;stroke-width:1.0pt;marker-start:none"
         transform="scale(0.2)" />
    </marker>
    <marker
       inkscape:stockid="DiamondSstart"
       orient="auto"
       refY="0.0"
       refX="0.0"
       id="DiamondSstart"
       style="overflow:visible">
      <path
         id="path3893"
         d="M 0,-7.0710768 L -7.0710894,0 L 0,7.0710589 L 7.0710462,0 L 0,-7.0710768 z "
         style="fill-rule:evenodd;stroke:#000000;stroke-width:1.0pt;marker-start:none"
         transform="scale(0.2) translate(6,0)" />
    </marker>
    <marker
       style="overflow:visible"
       id="DistanceEnd"
       refX="0.0"
       refY="0.0"
       orient="auto"
       inkscape:stockid="DistanceEnd">
      <g
         id="g3854">
        <path
           style="fill:none;stroke:#ffffff;stroke-width:1.15;stroke-linecap:square"
           d="M 0,0 L -2,0"
           id="path2316" />
        <path
           style="fill:#000000;fill-rule:evenodd;stroke:none"
           d="M 0,0 L -13,4 L -9,0 -13,-4 L 0,0 z "
           id="path2312" />
        <path
           style="fill:none;stroke:#000000;stroke-width:1;stroke-linecap:square"
           d="M 0,-4 L 0,40"
           id="path2314" />
      </g>
    </marker>
    <marker
       inkscape:stockid="DotS"
       orient="auto"
       refY="0.0"
       refX="0.0"
       id="DotS"
       style="overflow:visible">
      <path
         id="path3866"
         d="M -2.5,-1.0 C -2.5,1.7600000 -4.7400000,4.0 -7.5,4.0 C -10.260000,4.0 -12.5,1.7600000 -12.5,-1.0 C -12.5,-3.7600000 -10.260000,-6.0 -7.5,-6.0 C -4.7400000,-6.0 -2.5,-3.7600000 -2.5,-1.0 z "
         style="fill-rule:evenodd;stroke:#000000;stroke-width:1.0pt;marker-start:none;marker-end:none"
         transform="scale(0.2) translate(7.4, 1)" />
    </marker>
    <marker
       inkscape:stockid="Arrow2Mend"
       orient="auto"
       refY="0.0"
       refX="0.0"
       id="Arrow2Mend"
       style="overflow:visible;">
      <path
         id="path3825"
         style="font-size:12.0;fill-rule:evenodd;stroke-width:0.62500000;stroke-linejoin:round;"
         d="M 8.7185878,4.0337352 L -2.2072895,0.016013256 L 8.7185884,-4.0017078 C 6.9730900,-1.6296469 6.9831476,1.6157441 8.7185878,4.0337352 z "
         transform="scale(0.6) rotate(180) translate(0,0)" />
    </marker>
    <marker
       inkscape:stockid="Arrow1Send"
       orient="auto"
       refY="0.0"
       refX="0.0"
       id="Arrow1Send"
       style="overflow:visible;">
      <path
         id="path3813"
         d="M 0.0,0.0 L 5.0,-5.0 L -12.5,0.0 L 5.0,5.0 L 0.0,0.0 z "
         style="fill-rule:evenodd;stroke:#000000;stroke-width:1.0pt;marker-start:none;"
         transform="scale(0.2) rotate(180) translate(6,0)" />
    </marker>
    <marker
       inkscape:stockid="Arrow1Mend"
       orient="auto"
       refY="0.0"
       refX="0.0"
       id="Arrow1Mend"
       style="overflow:visible;">
      <path
         id="path3807"
         d="M 0.0,0.0 L 5.0,-5.0 L -12.5,0.0 L 5.0,5.0 L 0.0,0.0 z "
         style="fill-rule:evenodd;stroke:#000000;stroke-width:1.0pt;marker-start:none;"
         transform="scale(0.4) rotate(180) translate(10,0)" />
    </marker>
    <marker
       inkscape:stockid="SemiCircleOut"
       orient="auto"
       refY="0.0"
       refX="0.0"
       id="SemiCircleOut"
       style="overflow:visible">
      <path
         id="path3980"
         d="M -2.5,-0.80913858 C -2.5,1.9508614 -4.7400000,4.1908614 -7.5,4.1908614 L -7.5,-5.8091386 C -4.7400000,-5.8091386 -2.5,-3.5691386 -2.5,-0.80913858 z "
         style="fill-rule:evenodd;stroke:#000000;stroke-width:1.0pt;marker-start:none;marker-end:none"
         transform="scale(0.6) translate(7.125493,0.763446)" />
    </marker>
    <marker
       inkscape:stockid="EmptyTriangleInM"
       orient="auto"
       refY="0.0"
       refX="0.0"
       id="EmptyTriangleInM"
       style="overflow:visible">
      <path
         id="path3953"
         d="M 5.77,0.0 L -2.88,5.0 L -2.88,-5.0 L 5.77,0.0 z "
         style="fill-rule:evenodd;fill:#FFFFFF;stroke:#000000;stroke-width:1.0pt;marker-start:none"
         transform="scale(-0.4) translate(-4.5,0)" />
    </marker>
    <marker
       inkscape:stockid="DotM"
       orient="auto"
       refY="0.0"
       refX="0.0"
       id="DotM"
       style="overflow:visible">
      <path
         id="path3863"
         d="M -2.5,-1.0 C -2.5,1.7600000 -4.7400000,4.0 -7.5,4.0 C -10.260000,4.0 -12.5,1.7600000 -12.5,-1.0 C -12.5,-3.7600000 -10.260000,-6.0 -7.5,-6.0 C -4.7400000,-6.0 -2.5,-3.7600000 -2.5,-1.0 z "
         style="fill-rule:evenodd;stroke:#000000;stroke-width:1.0pt;marker-start:none;marker-end:none"
         transform="scale(0.4) translate(7.4, 1)" />
    </marker>
    <marker
       inkscape:stockid="Tail"
       orient="auto"
       refY="0.0"
       refX="0.0"
       id="Tail"
       style="overflow:visible">
      <g
         id="g3834"
         transform="scale(-1.2)">
        <path
           id="path3836"
           d="M -3.8048674,-3.9585227 L 0.54352094,0"
           style="fill:none;fill-rule:evenodd;stroke:#000000;stroke-width:0.8;marker-start:none;marker-end:none;stroke-linecap:round" />
        <path
           id="path3838"
           d="M -1.2866832,-3.9585227 L 3.0617053,0"
           style="fill:none;fill-rule:evenodd;stroke:#000000;stroke-width:0.8;marker-start:none;marker-end:none;stroke-linecap:round" />
        <path
           id="path3840"
           d="M 1.3053582,-3.9585227 L 5.6537466,0"
           style="fill:none;fill-rule:evenodd;stroke:#000000;stroke-width:0.8;marker-start:none;marker-end:none;stroke-linecap:round" />
        <path
           id="path3842"
           d="M -3.8048674,4.1775838 L 0.54352094,0.21974226"
           style="fill:none;fill-rule:evenodd;stroke:#000000;stroke-width:0.8;marker-start:none;marker-end:none;stroke-linecap:round" />
        <path
           id="path3844"
           d="M -1.2866832,4.1775838 L 3.0617053,0.21974226"
           style="fill:none;fill-rule:evenodd;stroke:#000000;stroke-width:0.8;marker-start:none;marker-end:none;stroke-linecap:round" />
        <path
           id="path3846"
           d="M 1.3053582,4.1775838 L 5.6537466,0.21974226"
           style="fill:none;fill-rule:evenodd;stroke:#000000;stroke-width:0.8;marker-start:none;marker-end:none;stroke-linecap:round" />
      </g>
    </marker>
    <marker
       inkscape:stockid="CurveIn"
       orient="auto"
       refY="0.0"
       refX="0.0"
       id="CurveIn"
       style="overflow:visible">
      <path
         id="path3983"
         d="M 4.6254930,-5.0456926 C 1.8654930,-5.0456926 -0.37450702,-2.8056926 -0.37450702,-0.045692580 C -0.37450702,2.7143074 1.8654930,4.9543074 4.6254930,4.9543074"
         style="fill-rule:evenodd;stroke:#000000;stroke-width:1.0pt;marker-start:none;marker-end:none;fill:none"
         transform="scale(0.6)" />
    </marker>
    <marker
       inkscape:stockid="DotMZ"
       orient="auto"
       refY="0.0"
       refX="0.0"
       id="DotMZ"
       style="overflow:visible">
      <path
         id="path8802"
         d="M -2.5,-1.0 C -2.5,1.7600000 -4.7400000,4.0 -7.5,4.0 C -10.260000,4.0 -12.5,1.7600000 -12.5,-1.0 C -12.5,-3.7600000 -10.260000,-6.0 -7.5,-6.0 C -4.7400000,-6.0 -2.5,-3.7600000 -2.5,-1.0 z "
         style="marker-end:none;fill-rule:evenodd;marker-start:none;stroke:#004700;stroke-width:1.0pt;fill:#004700"
         transform="scale(0.4) translate(7.4, 1)" />
    </marker>
    <marker
       inkscape:stockid="DotSg"
       orient="auto"
       refY="0.0"
       refX="0.0"
       id="DotSg"
       style="overflow:visible">
      <path
         id="path8805"
         d="M -2.5,-1.0 C -2.5,1.7600000 -4.7400000,4.0 -7.5,4.0 C -10.260000,4.0 -12.5,1.7600000 -12.5,-1.0 C -12.5,-3.7600000 -10.260000,-6.0 -7.5,-6.0 C -4.7400000,-6.0 -2.5,-3.7600000 -2.5,-1.0 z "
         style="marker-end:none;fill-rule:evenodd;marker-start:none;stroke:#004700;stroke-width:1.0pt;fill:#004700"
         transform="scale(0.2) translate(7.4, 1)" />
    </marker>
    <marker
       inkscape:stockid="Arrow2Mendy"
       orient="auto"
       refY="0.0"
       refX="0.0"
       id="Arrow2Mendy"
       style="overflow:visible;">
      <path
         id="path8808"
         style="stroke-linejoin:round;font-size:12.0;fill-rule:evenodd;stroke:#004700;stroke-width:0.62500000;fill:#004700"
         d="M 8.7185878,4.0337352 L -2.2072895,0.016013256 L 8.7185884,-4.0017078 C 6.9730900,-1.6296469 6.9831476,1.6157441 8.7185878,4.0337352 z "
         transform="scale(0.6) rotate(180) translate(0,0)" />
    </marker>
    <marker
       inkscape:stockid="DotSk"
       orient="auto"
       refY="0.0"
       refX="0.0"
       id="DotSk"
       style="overflow:visible">
      <path
         id="path8811"
         d="M -2.5,-1.0 C -2.5,1.7600000 -4.7400000,4.0 -7.5,4.0 C -10.260000,4.0 -12.5,1.7600000 -12.5,-1.0 C -12.5,-3.7600000 -10.260000,-6.0 -7.5,-6.0 C -4.7400000,-6.0 -2.5,-3.7600000 -2.5,-1.0 z "
         style="marker-end:none;fill-rule:evenodd;marker-start:none;stroke:#004700;stroke-width:1.0pt;fill:#004700"
         transform="scale(0.2) translate(7.4, 1)" />
    </marker>
    <marker
       inkscape:stockid="DotMZf"
       orient="auto"
       refY="0.0"
       refX="0.0"
       id="DotMZf"
       style="overflow:visible">
      <path
         id="path8948"
         d="M -2.5,-1.0 C -2.5,1.7600000 -4.7400000,4.0 -7.5,4.0 C -10.260000,4.0 -12.5,1.7600000 -12.5,-1.0 C -12.5,-3.7600000 -10.260000,-6.0 -7.5,-6.0 C -4.7400000,-6.0 -2.5,-3.7600000 -2.5,-1.0 z "
         style="marker-end:none;fill-rule:evenodd;marker-start:none;stroke:#00a400;stroke-width:1.0pt;fill:#00a400"
         transform="scale(0.4) translate(7.4, 1)" />
    </marker>
    <marker
       inkscape:stockid="DotSg3"
       orient="auto"
       refY="0.0"
       refX="0.0"
       id="DotSg3"
       style="overflow:visible">
      <path
         id="path8951"
         d="M -2.5,-1.0 C -2.5,1.7600000 -4.7400000,4.0 -7.5,4.0 C -10.260000,4.0 -12.5,1.7600000 -12.5,-1.0 C -12.5,-3.7600000 -10.260000,-6.0 -7.5,-6.0 C -4.7400000,-6.0 -2.5,-3.7600000 -2.5,-1.0 z "
         style="marker-end:none;fill-rule:evenodd;marker-start:none;stroke:#00a400;stroke-width:1.0pt;fill:#00a400"
         transform="scale(0.2) translate(7.4, 1)" />
    </marker>
    <marker
       inkscape:stockid="Arrow2Mendyx"
       orient="auto"
       refY="0.0"
       refX="0.0"
       id="Arrow2Mendyx"
       style="overflow:visible;">
      <path
         id="path8954"
         style="stroke-linejoin:round;font-size:12.0;fill-rule:evenodd;stroke:#00a400;stroke-width:0.62500000;fill:#00a400"
         d="M 8.7185878,4.0337352 L -2.2072895,0.016013256 L 8.7185884,-4.0017078 C 6.9730900,-1.6296469 6.9831476,1.6157441 8.7185878,4.0337352 z "
         transform="scale(0.6) rotate(180) translate(0,0)" />
    </marker>
    <marker
       inkscape:stockid="DotSk4"
       orient="auto"
       refY="0.0"
       refX="0.0"
       id="DotSk4"
       style="overflow:visible">
      <path
         id="path8957"
         d="M -2.5,-1.0 C -2.5,1.7600000 -4.7400000,4.0 -7.5,4.0 C -10.260000,4.0 -12.5,1.7600000 -12.5,-1.0 C -12.5,-3.7600000 -10.260000,-6.0 -7.5,-6.0 C -4.7400000,-6.0 -2.5,-3.7600000 -2.5,-1.0 z "
         style="marker-end:none;fill-rule:evenodd;marker-start:none;stroke:#00a400;stroke-width:1.0pt;fill:#00a400"
         transform="scale(0.2) translate(7.4, 1)" />
    </marker>
  </defs>
  <metadata
     id="metadata7">
    <rdf:RDF>
      <cc:Work
         rdf:about="">
        <dc:format>image/svg+xml</dc:format>
        <dc:type
           rdf:resource="http://purl.org/dc/dcmitype/StillImage" />
        <dc:title>MathP Logo</dc:title>
      </cc:Work>
    </rdf:RDF>
  </metadata>
  <g
     inkscape:label="Layer 1"
     inkscape:groupmode="layer"
     id="layer1">
    <rect
       style="fill:#c5f7ac;stroke:#000000;stroke-width:1;stroke-linecap:butt;stroke-linejoin:miter;stroke-miterlimit:4;stroke-opacity:1;stroke-dasharray:none;stroke-dashoffset:0;fill-opacity:1"
       id="rect2987"
       width="35"
       height="35"
       x="80"
       y="172.36218"
       inkscape:export-filename="C:\core\mathp\MathP Logo Ma+th.png"
       inkscape:export-xdpi="87.5"
       inkscape:export-ydpi="87.5" />
    <text
       xml:space="preserve"
       style="font-size:16px;font-style:normal;font-variant:normal;font-weight:normal;font-stretch:normal;text-align:start;line-height:75%;letter-spacing:0px;word-spacing:0px;writing-mode:lr-tb;text-anchor:start;fill:#3434d7;fill-opacity:1;stroke:none;font-family:Euclid Fraktur;-inkscape-font-specification:Euclid Fraktur"
       x="80.876953"
       y="187.78235"
       id="text3757"
       sodipodi:linespacing="75%"><tspan
         sodipodi:role="line"
         id="tspan3759"
         x="80.876953"
         y="187.78235">#M</tspan><tspan
         sodipodi:role="line"
         x="80.876953"
         y="199.78235"
         id="tspan3761" /></text>
    <text
       sodipodi:linespacing="75%"
       id="text3763"
       y="187.78235"
       x="80.876953"
       style="font-size:16px;font-style:normal;font-variant:normal;font-weight:normal;font-stretch:normal;text-align:start;line-height:75%;letter-spacing:0px;word-spacing:0px;writing-mode:lr-tb;text-anchor:start;fill:#009250;fill-opacity:1;stroke:none;font-family:Euclid Fraktur;-inkscape-font-specification:Euclid Fraktur"
       xml:space="preserve"><tspan
         y="187.78235"
         x="80.876953"
         id="tspan3765"
         sodipodi:role="line" /><tspan
         id="tspan3767"
         y="199.78235"
         x="80.876953"
         sodipodi:role="line">a+th</tspan></text>
    <rect
       y="172.36218"
       x="120"
       height="35"
       width="35"
       id="rect3771"
       style="fill:#ffffff;fill-opacity:1;stroke:none;stroke-width:1;stroke-linecap:butt;stroke-linejoin:miter;stroke-miterlimit:4;stroke-opacity:1;stroke-dasharray:none;stroke-dashoffset:0"
       inkscape:export-filename="C:\core\mathp\MathP Logo Diagram.png"
       inkscape:export-xdpi="90"
       inkscape:export-ydpi="90" />
    <path
       style="fill:none;stroke:#0000ff;stroke-width:1px;stroke-linecap:butt;stroke-linejoin:miter;stroke-opacity:1"
       d="m 131.41412,207.36218 0,-35"
       id="path3785"
       inkscape:connector-curvature="0" />
    <path
       inkscape:connector-curvature="0"
       id="path3787"
       d="m 155,183.39751 -35,0"
       style="fill:none;stroke:#0000ff;stroke-width:1px;stroke-linecap:butt;stroke-linejoin:miter;stroke-opacity:1"
       sodipodi:nodetypes="cc" />
    <path
       style="fill:none;stroke:#0000ff;stroke-width:1px;stroke-linecap:butt;stroke-linejoin:miter;stroke-opacity:1"
       d="m 143.58587,207.36218 0,-35"
       id="path3789"
       inkscape:connector-curvature="0" />
    <path
       sodipodi:nodetypes="cc"
       style="fill:none;stroke:#0000ff;stroke-width:1px;stroke-linecap:butt;stroke-linejoin:miter;stroke-opacity:1"
       d="m 155,196.32686 -35,0"
       id="path3791"
       inkscape:connector-curvature="0" />
    <path
       style="stroke-linejoin:miter;marker-end:url(#Arrow2Mendyx);stroke-opacity:1;marker-start:url(#DotMZf);stroke:#00a400;stroke-linecap:butt;stroke-miterlimit:4;stroke-dasharray:none;stroke-width:1.20000005000000010;marker-mid:url(#DotSg3);fill:none"
       d="m 125.79203,202.36218 0,-25 11.71439,13 11.71439,-13 0,26.26269"
       id="path3793"
       inkscape:connector-curvature="0"
       sodipodi:nodetypes="ccccc" />
    <path
       sodipodi:nodetypes="ccccc"
       inkscape:connector-curvature="0"
       id="path7911"
       d="m 125.79203,202.36218 0,-25 11.71439,13 11.71439,-13 0,22.47462"
       style="stroke-linejoin:bevel;marker-end:none;stroke-opacity:1;marker-start:none;stroke:#00a400;stroke-linecap:butt;stroke-miterlimit:4;stroke-dasharray:none;stroke-width:2;marker-mid:url(#DotSk4);fill:none" />
    <rect
       y="217.36218"
       x="80"
       height="35"
       width="35"
       id="rect9043"
       style="fill:#ffffff;fill-opacity:1;stroke:none;stroke-width:1;stroke-linecap:butt;stroke-linejoin:miter;stroke-miterlimit:4;stroke-opacity:1;stroke-dasharray:none;stroke-dashoffset:0"
       inkscape:export-filename="C:\core\mathp\MathP Logo Angular Eye.png"
       inkscape:export-xdpi="90"
       inkscape:export-ydpi="90" />
    <path
       style="fill:none;stroke:#a4a4a4;stroke-width:2;stroke-linecap:butt;stroke-linejoin:miter;stroke-miterlimit:4;stroke-opacity:1;stroke-dasharray:4,4;stroke-dashoffset:0.5"
       d="m 82,252.36218 0,-35"
       id="path9059"
       inkscape:connector-curvature="0" />
    <path
       sodipodi:type="arc"
       style="fill:#ffffff;fill-opacity:1;stroke:#000000;stroke-width:2.01612926;stroke-linecap:butt;stroke-linejoin:round;stroke-miterlimit:4;stroke-opacity:1;stroke-dasharray:none;stroke-dashoffset:0"
       id="path9047"
       sodipodi:cx="85"
       sodipodi:cy="237.36218"
       sodipodi:rx="22.377874"
       sodipodi:ry="22.377874"
       d="m 105.06328,227.45088 a 22.377874,22.377874 0 0 1 -0.0975,20.01757 L 85,237.36218 z"
       sodipodi:start="5.8243474"
       sodipodi:end="6.7517641"
       transform="matrix(1.2399998,0,0,1.2399998,-23.39998,-59.587752)" />
    <path
       style="fill:none;stroke:#000000;stroke-width:2.5;stroke-linecap:round;stroke-linejoin:round;stroke-miterlimit:4;stroke-opacity:1;stroke-dasharray:none"
       d="m 113,250.36218 -30.999997,-15.5 30.999997,-15.5"
       id="path9045"
       inkscape:connector-curvature="0"
       sodipodi:nodetypes="ccc" />
    <g
       id="g9053"
       transform="matrix(1.2399998,0,0,1.2399998,-24.679979,-56.366874)"
       style="stroke-width:2.01612926;stroke-miterlimit:4;stroke-dasharray:none">
      <path
         transform="translate(-1,-2)"
         d="m 108,236.36218 c 0,2.20914 -1.79086,4 -4,4 -2.20914,0 -4,-1.79086 -4,-4 0,-2.20914 1.79086,-4 4,-4 2.20914,0 4,1.79086 4,4 z"
         sodipodi:ry="4"
         sodipodi:rx="4"
         sodipodi:cy="236.36218"
         sodipodi:cx="104"
         id="path9049"
         style="fill:#4600f0;fill-opacity:1;stroke:none;stroke-width:2.01612926000000000;stroke-linecap:butt;stroke-linejoin:bevel;stroke-miterlimit:4;stroke-opacity:1;stroke-dasharray:none;stroke-dashoffset:0"
         sodipodi:type="arc" />
      <path
         inkscape:connector-curvature="0"
         id="path9051"
         d="m 99,234.36218 8,0"
         style="fill:none;stroke:#000000;stroke-width:1.45161314;stroke-linecap:butt;stroke-linejoin:miter;stroke-miterlimit:4;stroke-opacity:1;stroke-dasharray:none" />
      <path
         sodipodi:type="arc"
         style="fill:none;stroke:#6767ff;stroke-width:2.74193592999999990;stroke-linecap:butt;stroke-linejoin:bevel;stroke-miterlimit:4;stroke-opacity:1;stroke-dasharray:none;stroke-dashoffset:0"
         id="path9057"
         sodipodi:cx="104"
         sodipodi:cy="236.36218"
         sodipodi:rx="4"
         sodipodi:ry="4"
         d="m 108,236.36218 c 0,2.20914 -1.79086,4 -4,4 -2.20914,0 -4,-1.79086 -4,-4 0,-2.20914 1.79086,-4 4,-4 2.20914,0 4,1.79086 4,4 z"
         transform="translate(-1,-2)" />
    </g>
    <rect
       y="217.36218"
       x="120"
       height="35"
       width="35"
       id="rect9061"
       style="fill:#ffffff;fill-opacity:1;stroke:none;stroke-width:1;stroke-linecap:butt;stroke-linejoin:miter;stroke-miterlimit:4;stroke-opacity:1;stroke-dasharray:none;stroke-dashoffset:0"
       inkscape:export-filename="C:\core\mathp\MathP Logo Squared.png"
       inkscape:export-xdpi="90"
       inkscape:export-ydpi="90" />
    <g
       id="g4039">
      <path
         sodipodi:nodetypes="ccc"
         inkscape:connector-curvature="0"
         id="path9067"
         d="m 152.02842,218.79621 c 1.26542,0 1.78309,1.19844 2.26625,2.84073 -1.47248,0 -6.62619,0 -6.62619,0 l -0.0229,-1.95301"
         style="fill:#fff6cb;fill-opacity:1;stroke:#000000;stroke-width:0.99999994px;stroke-linecap:round;stroke-linejoin:round;stroke-opacity:1" />
      <path
         style="fill:#fff6cb;fill-opacity:1;stroke:#000000;stroke-width:0.99999994px;stroke-linecap:butt;stroke-linejoin:bevel;stroke-opacity:1"
         d="m 125.96901,246.52104 c 0.23495,-2.56161 1.29418,-22.14701 2.44834,-25.41442 0.5991,-1.69602 1.89153,-2.3104 3.26447,-2.3104 1.63223,0 18.8471,0 20.47933,0 -0.85218,0.0766 -2.44835,0 -3.26446,2.3104 -0.81613,2.3104 -2.13958,22.86855 -2.44836,25.41442 -0.31116,2.56566 -0.81611,4.6208 -3.26446,4.6208 -1.63223,0 -20.47932,0 -20.47932,0 2.44834,0 3.04076,-2.18197 3.26446,-4.6208 z"
         id="path9065"
         inkscape:connector-curvature="0"
         sodipodi:nodetypes="ssccssscs" />
      <path
         style="fill:#fff6cb;fill-opacity:1;stroke:#000000;stroke-width:0.99999994px;stroke-linecap:butt;stroke-linejoin:round;stroke-opacity:1"
         d="m 122.70455,251.14185 c -1.18914,0 -1.6756,-1.38488 -2.12964,-3.28268 1.38373,0 6.22676,0 6.22676,0 l 13.66387,0 c 0.81612,3.28268 2.44835,3.28268 2.44835,3.28268 0,0 -19.39322,0 -20.20934,0 z"
         id="path9069"
         inkscape:connector-curvature="0"
         sodipodi:nodetypes="sccccs" />
    </g>
    <text
       xml:space="preserve"
       style="font-size:22px;font-style:normal;font-variant:normal;font-weight:normal;font-stretch:normal;text-align:center;line-height:125%;letter-spacing:0px;word-spacing:0px;writing-mode:lr-tb;text-anchor:middle;fill:#000000;fill-opacity:1;stroke:none;font-family:Lucida Calligraphy;-inkscape-font-specification:Lucida Calligraphy"
       x="139.45174"
       y="240.33842"
       id="text9071"
       sodipodi:linespacing="125%"
       transform="matrix(1,0,-0.02356632,1,0,0)"><tspan
         sodipodi:role="line"
         id="tspan9073"
         x="139.45174"
         y="240.33842"><tspan
           style="font-size:18px;font-style:normal;font-variant:normal;font-weight:normal;font-stretch:normal;text-align:center;line-height:125%;writing-mode:lr-tb;text-anchor:middle;font-family:Lucida Calligraphy;-inkscape-font-specification:Lucida Calligraphy"
           id="tspan9079">x</tspan><tspan
           style="font-size:11px;font-style:normal;font-variant:normal;font-weight:normal;font-stretch:normal;text-align:center;line-height:125%;writing-mode:lr-tb;text-anchor:middle;baseline-shift:super;font-family:Lucida Calligraphy;-inkscape-font-specification:Lucida Calligraphy"
           id="tspan9077" /></tspan></text>
    <text
       transform="matrix(1,0,-0.02356632,1,0,0)"
       sodipodi:linespacing="125%"
       id="text9081"
       y="238.12872"
       x="147.97333"
       style="font-size:22px;font-style:normal;font-variant:normal;font-weight:normal;font-stretch:normal;text-align:center;line-height:125%;letter-spacing:0px;word-spacing:0px;writing-mode:lr-tb;text-anchor:middle;fill:#000000;fill-opacity:1;stroke:none;font-family:Lucida Calligraphy;-inkscape-font-specification:Lucida Calligraphy"
       xml:space="preserve"
       inkscape:export-xdpi="90"
       inkscape:export-ydpi="90"><tspan
         y="238.12872"
         x="147.97333"
         id="tspan9083"
         sodipodi:role="line"><tspan
           id="tspan9087"
           style="font-size:11px;font-style:normal;font-variant:normal;font-weight:normal;font-stretch:normal;text-align:center;line-height:125%;writing-mode:lr-tb;text-anchor:middle;baseline-shift:super;font-family:Lucida Calligraphy;-inkscape-font-specification:Lucida Calligraphy">2</tspan></tspan></text>
    <rect
       inkscape:export-ydpi="90"
       inkscape:export-xdpi="90"
       inkscape:export-filename="C:\core\mathp\MathP Logo Plan.png"
       style="fill:#ffffff;fill-opacity:1;stroke:none"
       id="rect9102"
       width="35"
       height="35"
       x="160"
       y="217.36218" />
    <g
       transform="matrix(1.0667609,0,0,1.1552007,31.080252,-35.76632)"
       id="g9104">
      <path
         style="fill:#fff6cb;fill-opacity:1;stroke:#000000;stroke-width:0.90081936px;stroke-linecap:round;stroke-linejoin:round;stroke-opacity:1"
         d="m 150.87558,220.36217 c 1.18623,0 1.6715,1.03743 2.12442,2.45908 -1.38033,0 -6.2115,0 -6.2115,0 l -0.0215,-1.69062"
         id="path9106"
         inkscape:connector-curvature="0"
         sodipodi:nodetypes="ccc" />
      <path
         sodipodi:nodetypes="ssccssscs"
         inkscape:connector-curvature="0"
         id="path9108"
         d="m 126.44704,244.36218 c 0.22025,-2.21746 1.21319,-19.17157 2.29512,-22 0.5616,-1.46816 1.77315,-2 3.06017,-2 1.53008,0 17.66759,0 19.19767,0 -0.79885,0.0663 -2.29512,0 -3.06016,2 -0.76505,2 -2.00568,19.79617 -2.29513,22 -0.29169,2.22097 -0.76504,4 -3.06016,4 -1.53008,0 -19.19767,0 -19.19767,0 2.29512,0 2.85046,-1.88882 3.06016,-4 z"
         style="fill:#fff6cb;fill-opacity:1;stroke:#000000;stroke-width:0.90081936px;stroke-linecap:butt;stroke-linejoin:bevel;stroke-opacity:1" />
      <path
         sodipodi:nodetypes="sccccs"
         inkscape:connector-curvature="0"
         id="path9110"
         d="m 123.38688,248.36219 c -1.11472,0 -1.57074,-1.19882 -1.99636,-2.84165 1.29713,0 5.83707,0 5.83707,0 l 12.80875,0 c 0.76504,2.84165 2.29512,2.84165 2.29512,2.84165 0,0 -18.17954,0 -18.94458,0 z"
         style="fill:#fff6cb;fill-opacity:1;stroke:#000000;stroke-width:0.90081936px;stroke-linecap:butt;stroke-linejoin:round;stroke-opacity:1" />
    </g>
    <rect
       style="fill:none;stroke:#0c49ff;stroke-width:2.00347519;stroke-linecap:butt;stroke-linejoin:miter;stroke-miterlimit:4;stroke-opacity:1;stroke-dasharray:none;stroke-dashoffset:0"
       id="rect9136"
       width="12.933862"
       height="15.344323"
       x="190.4196"
       y="227.69263"
       transform="matrix(1,0,-0.08318798,0.99653387,0,0)" />
    <path
       style="fill:none;stroke:#0c49ff;stroke-width:2;stroke-linecap:butt;stroke-linejoin:miter;stroke-miterlimit:4;stroke-opacity:1;stroke-dasharray:none"
       d="m 171.65017,227.34535 12.1092,6.71751"
       id="path9138"
       inkscape:connector-curvature="0"
       sodipodi:nodetypes="cc" />
    <path
       sodipodi:nodetypes="cc"
       inkscape:connector-curvature="0"
       id="path9140"
       d="m 170.94306,241.48749 12.81631,-6.8943"
       style="fill:none;stroke:#0c49ff;stroke-width:2;stroke-linecap:butt;stroke-linejoin:miter;stroke-miterlimit:4;stroke-opacity:1;stroke-dasharray:none" />
    <path
       style="fill:none;stroke:#0c49ff;stroke-width:2;stroke-linecap:round;stroke-linejoin:miter;stroke-miterlimit:4;stroke-opacity:1;stroke-dasharray:none"
       d="m 171.385,234.41641 4.77297,0"
       id="path9142"
       inkscape:connector-curvature="0"
       sodipodi:nodetypes="cc" />
    <rect
       y="217.36218"
       x="200"
       height="35"
       width="35"
       id="rect9144"
       style="fill:#ffffff;fill-opacity:1;stroke:none"
       inkscape:export-filename="C:\core\mathp\MathP Logo Script.png"
       inkscape:export-xdpi="90"
       inkscape:export-ydpi="90" />
    <g
       id="g9146"
       transform="matrix(1.0939972,0,0,1.2318207,67.42227,-53.850307)"
       style="stroke-width:0.45040971;stroke-miterlimit:4;stroke-dasharray:none">
      <path
         sodipodi:nodetypes="ccc"
         inkscape:connector-curvature="0"
         id="path9148"
         d="m 150.87558,220.36217 c 1.18623,0 1.6715,1.03743 2.12442,2.45908 -1.38033,0 -6.2115,0 -6.2115,0 l -0.0215,-1.69062"
         style="fill:#fff6cb;fill-opacity:1;stroke:#000000;stroke-width:0.43071318;stroke-linecap:round;stroke-linejoin:round;stroke-miterlimit:4;stroke-opacity:1;stroke-dasharray:none" />
      <path
         style="fill:#fff6cb;fill-opacity:1;stroke:#000000;stroke-width:0.43071318;stroke-linecap:butt;stroke-linejoin:bevel;stroke-miterlimit:4;stroke-opacity:1;stroke-dasharray:none"
         d="m 126.44704,244.36218 c 0.22025,-2.21746 1.21319,-19.17157 2.29512,-22 0.5616,-1.46816 1.77315,-2 3.06017,-2 1.53008,0 17.66759,0 19.19767,0 -0.79885,0.0663 -2.29512,0 -3.06016,2 -0.76505,2 -2.00568,19.79617 -2.29513,22 -0.29169,2.22097 -0.76504,4 -3.06016,4 -1.53008,0 -19.19767,0 -19.19767,0 2.29512,0 2.85046,-1.88882 3.06016,-4 z"
         id="path9150"
         inkscape:connector-curvature="0"
         sodipodi:nodetypes="ssccssscs" />
      <path
         style="fill:#fff6cb;fill-opacity:1;stroke:#000000;stroke-width:0.43071318;stroke-linecap:butt;stroke-linejoin:round;stroke-miterlimit:4;stroke-opacity:1;stroke-dasharray:none"
         d="m 123.38688,248.36219 c -1.11472,0 -1.57074,-1.19882 -1.99636,-2.84165 1.29713,0 5.83707,0 5.83707,0 l 12.80875,0 c 0.76504,2.84165 2.29512,2.84165 2.29512,2.84165 0,0 -18.17954,0 -18.94458,0 z"
         id="path9152"
         inkscape:connector-curvature="0"
         sodipodi:nodetypes="sccccs" />
    </g>
    <path
       sodipodi:nodetypes="ccccc"
       inkscape:connector-curvature="0"
       id="path9156"
       d="m 200,192.36218 5,-15 5,10 5,-10 5,15"
       style="fill:none;stroke:#0c49ff;stroke-width:2;stroke-linecap:butt;stroke-linejoin:miter;stroke-miterlimit:4;stroke-opacity:1;stroke-dasharray:none" />
    <text
       xml:space="preserve"
       style="font-size:22px;font-style:normal;font-variant:normal;font-weight:normal;font-stretch:normal;text-align:center;line-height:125%;letter-spacing:0px;word-spacing:0px;writing-mode:lr-tb;text-anchor:middle;fill:#000000;fill-opacity:1;stroke:none;font-family:Lucida Calligraphy;-inkscape-font-specification:Lucida Calligraphy"
       x="141.41858"
       y="272.36218"
       id="text9162"
       sodipodi:linespacing="125%"
       transform="matrix(1,0,-0.02356632,1,0,0)"><tspan
         sodipodi:role="line"
         id="tspan9164"
         x="141.41858"
         y="272.36218"><tspan
           style="font-size:18px;font-style:normal;font-variant:normal;font-weight:normal;font-stretch:normal;text-align:center;line-height:125%;writing-mode:lr-tb;text-anchor:middle;font-family:Lucida Calligraphy;-inkscape-font-specification:Lucida Calligraphy"
           id="tspan9166">x</tspan><tspan
           style="font-size:11px;font-style:normal;font-variant:normal;font-weight:normal;font-stretch:normal;text-align:center;line-height:125%;writing-mode:lr-tb;text-anchor:middle;baseline-shift:super;font-family:Lucida Calligraphy;-inkscape-font-specification:Lucida Calligraphy"
           id="tspan9168">2</tspan></tspan></text>
    <text
       transform="matrix(1,0,-0.02356632,1,0,0)"
       sodipodi:linespacing="125%"
       id="text9089"
       y="269.86218"
       x="218.85966"
       style="font-size:13px;font-style:normal;font-variant:normal;font-weight:normal;font-stretch:normal;text-align:center;line-height:125%;letter-spacing:0px;word-spacing:0px;writing-mode:lr-tb;text-anchor:middle;fill:#0c49ff;fill-opacity:1;stroke:none;font-family:Narkisim;-inkscape-font-specification:Narkisim"
       xml:space="preserve"><tspan
         y="269.86218"
         x="218.85966"
         id="tspan9091"
         sodipodi:role="line">#M</tspan></text>
    <text
       inkscape:export-ydpi="90"
       inkscape:export-xdpi="90"
       transform="matrix(0.74948886,0,-0.12156,1.3342427,0,0)"
       sodipodi:linespacing="125%"
       id="text9176"
       y="182.73616"
       x="308.83606"
       style="font-size:24.01488495px;font-style:normal;font-variant:normal;font-weight:bold;font-stretch:normal;text-align:center;line-height:125%;letter-spacing:0px;word-spacing:0px;writing-mode:lr-tb;text-anchor:middle;fill:#0c49ff;fill-opacity:1;stroke:none;font-family:Teen;-inkscape-font-specification:Teen Bold"
       xml:space="preserve"><tspan
         y="182.73616"
         x="308.83606"
         id="tspan9178"
         sodipodi:role="line"><tspan
           id="tspan9180"
           style="font-size:24.01488495px;font-style:normal;font-variant:normal;font-weight:normal;font-stretch:normal;text-align:center;line-height:125%;writing-mode:lr-tb;text-anchor:middle;font-family:Teen;-inkscape-font-specification:Teen">#</tspan></tspan></text>
    <text
       xml:space="preserve"
       style="font-size:24.01488495px;font-style:normal;font-variant:normal;font-weight:bold;font-stretch:normal;text-align:center;line-height:125%;letter-spacing:0px;word-spacing:0px;writing-mode:lr-tb;text-anchor:middle;fill:#0c49ff;fill-opacity:1;stroke:none;font-family:Teen;-inkscape-font-specification:Teen Bold"
       x="322.38867"
       y="182.98592"
       id="text9170"
       sodipodi:linespacing="125%"
       transform="matrix(0.74948886,0,-0.12156,1.3342427,0,0)"
       inkscape:export-xdpi="90"
       inkscape:export-ydpi="90"><tspan
         sodipodi:role="line"
         id="tspan9172"
         x="322.38867"
         y="182.98592">M</tspan></text>
    <rect
       inkscape:export-ydpi="90"
       inkscape:export-xdpi="90"
       inkscape:export-filename="C:\core\mathp\MathP Logo Script.png"
       style="fill:#ffffff;fill-opacity:1;stroke:none"
       id="rect3093"
       width="35"
       height="35"
       x="80"
       y="277.36218" />
    <path
       style="fill:#fff6cb;fill-opacity:1;stroke:#000000;stroke-width:1;stroke-linecap:butt;stroke-linejoin:bevel;stroke-miterlimit:4;stroke-opacity:1;stroke-dasharray:none"
       d="m 84,277.86218 31,0 c -7,11.5 5,22.5 -4,34 -1.63223,0 -31,0 -31,0 7,-11.5 -5,-22.5 4,-34 z"
       id="path4033"
       inkscape:connector-curvature="0"
       sodipodi:nodetypes="ccccc" />
    <text
       transform="matrix(1,0,-0.02356632,1,0,0)"
       sodipodi:linespacing="125%"
       id="text9089-4"
       y="298.5502"
       x="95.593605"
       style="font-size:35.21870041px;font-style:normal;font-variant:normal;font-weight:normal;font-stretch:normal;text-align:center;line-height:125%;letter-spacing:0px;word-spacing:0px;writing-mode:lr-tb;text-anchor:middle;fill:#0c49ff;fill-opacity:1;stroke:none;font-family:Vijaya;-inkscape-font-specification:Vijaya"
       xml:space="preserve"><tspan
         y="298.5502"
         x="95.593605"
         id="tspan9091-6"
         sodipodi:role="line"
         style="font-weight:bold;-inkscape-font-specification:Vijaya Bold">#</tspan></text>
    <path
       style="fill:#0c49ff;fill-opacity:1;stroke:none"
       d="m 86.998377,309.27576 c 10.777431,-5.67608 12.367832,-17.95877 13.469073,-26.68403 l 3.7273,6.69219 4.57439,-6.52276 c -0.50826,8.13227 -1.76986,19.39094 1.77895,23.465 1.7109,1.96413 3.21902,-1.01654 2.2872,-2.45663 -0.93183,-1.44009 -0.72034,-0.64645 -1.86365,-2.62605 -1.93574,-3.35167 -0.95922,-13.01974 -0.38233,-18.37789 0.13567,-1.26009 0.41865,-2.28182 1.06002,-2.92697 l -3.30374,0 c -0.59297,2.11778 -2.88018,4.36262 -3.812,5.88743 l -3.0496,-5.88743 -3.388449,0 c 0.497702,1.08157 0.481638,2.57834 0.415584,3.76852 -0.308697,5.56219 -1.731913,12.94063 -6.938345,18.80701 -1.50231,1.69274 -4.068608,1.66241 -6.353338,2.79547 -3.096691,1.53574 -1.608835,5.85035 1.778935,4.06614 z"
       id="path4031"
       inkscape:connector-curvature="0"
       sodipodi:nodetypes="scccsssscccccssss" />
    <text
       xml:space="preserve"
       style="font-size:40px;font-style:oblique;font-variant:normal;font-weight:normal;font-stretch:normal;text-align:center;line-height:125%;letter-spacing:0px;word-spacing:0px;writing-mode:lr-tb;text-anchor:middle;fill:#000000;fill-opacity:1;stroke:none;font-family:Monotype Corsiva;-inkscape-font-specification:Monotype Corsiva Oblique"
       x="93.605835"
       y="345.44745"
       id="text4044"
       sodipodi:linespacing="125%"><tspan
         sodipodi:role="line"
         id="tspan4046"
         x="93.605835"
         y="345.44745">M</tspan></text>
  </g>
</svg>
